######################################################
#//////////////S/////////////////////////////////////#
#//////////////S/////////////////////////////////////#
#///######/////S////////////////////////##///////////#
#//////////////S/////////////////////////////////////#
#//////////////S///////////////##////////////A///////#
#///////////////////////////////////////////###//////#
#////SS//////////////######//////////////////////////#
#////SS//////////////////////////////////////////////#
#////////////////////////////////////////////////////#
#////////////////////////////////////////////////////#
#/////////////######/////////////////////////////////#
#/////////////######////////////////////////////###//#
#////#/////############//////////////////////////////#
#////#/////############////SSSSSSSSSSSSSSSSSSS///////#
######################################################